{
"document" : {
"data" : {
"NAME" : "XDAQ_APPLICATION_CONFIGURATION",
"COMMENT" : "comment_ \" \" ",
"AUTHOR" : "",
"CREATION_TIME" : 1476224484,
"COL_TYPES" : {
"APPLICATION_GROUP" : "VARCHAR2",
"APPLICATION" : "VARCHAR2",
"SUPERVISOR_CONFIGURATION" : "VARCHAR2",
"SUPERVISOR_UID" : "VARCHAR2",
"STATUS" : "VARCHAR2",
"CLASS" : "VARCHAR2",
"ID" : "VARCHAR2",
"INSTANCE" : "VARCHAR2",
"NETWORK" : "VARCHAR2",
"GROUP" : "VARCHAR2",
"MODULE" : "VARCHAR2"
},
"DATA_SET" : [
{
"APPLICATION_GROUP" : "testContextApps",
"APPLICATION" : "Supervisor",
"SUPERVISOR_CONFIGURATION" : "TheSupervisorConfiguration",
"SUPERVISOR_UID" : "Supervisor0",
"STATUS" : "On",
"CLASS" : "ots::Supervisor",
"ID" : "200",
"INSTANCE" : "1",
"NETWORK" : "local",
"GROUP" : "daq",
"MODULE" : "/home/rrivera/ots/build_slf6.x86_64/otsdaq/lib/libSupervisor.so"
},
{
"APPLICATION_GROUP" : "testContextApps",
"APPLICATION" : "FESupervisor",
"SUPERVISOR_CONFIGURATION" : "TheSupervisorConfiguration",
"SUPERVISOR_UID" : "FESupervisor0",
"STATUS" : "On",
"CLASS" : "ots::FESupervisor",
"ID" : "210",
"INSTANCE" : "1",
"NETWORK" : "local",
"GROUP" : "daq",
"MODULE" : "/home/rrivera/ots/build_slf6.x86_64/otsdaq/lib/libCoreSupervisors.so"
},
{
"APPLICATION_GROUP" : "testContextApps",
"APPLICATION" : "ChatSupervisor",
"SUPERVISOR_CONFIGURATION" : "TheSupervisorConfiguration",
"SUPERVISOR_UID" : "ChatSupervisor0",
"STATUS" : "On",
"CLASS" : "ots::ChatSupervisor",
"ID" : "250",
"INSTANCE" : "1",
"NETWORK" : "local",
"GROUP" : "daq",
"MODULE" : "/home/rrivera/ots/build_slf6.x86_64/otsdaq_utilities/lib/libChat.so"
},
{
"APPLICATION_GROUP" : "testContextApps",
"APPLICATION" : "ConsoleSupervisor",
"SUPERVISOR_CONFIGURATION" : "TheSupervisorConfiguration",
"SUPERVISOR_UID" : "ConsoleSupervisor0",
"STATUS" : "On",
"CLASS" : "ots::ConsoleSupervisor",
"ID" : "260",
"INSTANCE" : "1",
"NETWORK" : "local",
"GROUP" : "daq",
"MODULE" : "/home/rrivera/ots/build_slf6.x86_64/otsdaq_utilities/lib/libConsole.so"
},
{
"APPLICATION_GROUP" : "testContextApps",
"APPLICATION" : "DataManagerSupervisor",
"SUPERVISOR_CONFIGURATION" : "TheSupervisorConfiguration",
"SUPERVISOR_UID" : "DataManagerSupervisor0",
"STATUS" : "Off",
"CLASS" : "ots::DataManagerSupervisor",
"ID" : "310",
"INSTANCE" : "1",
"NETWORK" : "local",
"GROUP" : "daq",
"MODULE" : "/home/rrivera/ots/build_slf6.x86_64/otsdaq/lib/libCoreSupervisors.so"
},
{
"APPLICATION_GROUP" : "testContextApps",
"APPLICATION" : "LogbookSupervisor",
"SUPERVISOR_CONFIGURATION" : "TheSupervisorConfiguration",
"SUPERVISOR_UID" : "LogbookSupervisor0",
"STATUS" : "Off",
"CLASS" : "ots::LogbookSupervisor",
"ID" : "260",
"INSTANCE" : "1",
"NETWORK" : "local",
"GROUP" : "daq",
"MODULE" : "/home/rrivera/ots/build_slf6.x86_64/otsdaq_utilities/lib/libLogbook.so"
},
{
"APPLICATION_GROUP" : "testContextApps",
"APPLICATION" : "VisualSupervisor",
"SUPERVISOR_CONFIGURATION" : "TheSupervisorConfiguration",
"SUPERVISOR_UID" : "Supervisor0",
"STATUS" : "On",
"CLASS" : "ots::VisualSupervisor",
"ID" : "270",
"INSTANCE" : "1",
"NETWORK" : "local",
"GROUP" : "daq",
"MODULE" : "/home/rrivera/ots/build_slf6.x86_64/otsdaq_utilities/lib/libVisualization.so"
},
{
"APPLICATION_GROUP" : "testContextApps",
"APPLICATION" : "ConfigurationGUISupervisor",
"SUPERVISOR_CONFIGURATION" : "TheSupervisorConfiguration",
"SUPERVISOR_UID" : "ConfigurationGUISupervisor0",
"STATUS" : "On",
"CLASS" : "ots::ConfigurationGUISupervisor",
"ID" : "281",
"INSTANCE" : "1",
"NETWORK" : "local",
"GROUP" : "daq",
"MODULE" : "/home/rrivera/ots/build_slf6.x86_64/otsdaq_utilities/lib/libConfigurationGUI.so"
},
{
"APPLICATION_GROUP" : "testContextApps",
"APPLICATION" : "MacroMakerSupervisor",
"SUPERVISOR_CONFIGURATION" : "TheSupervisorConfiguration",
"SUPERVISOR_UID" : "MacroMakerSupervisor0",
"STATUS" : "On",
"CLASS" : "ots::MacroMakerSupervisor",
"ID" : "300",
"INSTANCE" : "1",
"NETWORK" : "local",
"GROUP" : "daq",
"MODULE" : "/home/rrivera/ots/build_slf6.x86_64/otsdaq_utilities/lib/libMacroMaker.so"
},
{
"APPLICATION_GROUP" : "artdaqDataManagerApps",
"APPLICATION" : "artdaqDataManager",
"SUPERVISOR_CONFIGURATION" : "TheSupervisorConfiguration",
"SUPERVISOR_UID" : "artdaqDataManager0",
"STATUS" : "On",
"CLASS" : "ots::ARTDAQDataManagerSupervisor",
"ID" : "220",
"INSTANCE" : "1",
"NETWORK" : "local",
"GROUP" : "daq",
"MODULE" : "/home/rrivera/ots/build_slf6.x86_64/otsdaq/lib/libCoreSupervisors.so"
},
{
"APPLICATION_GROUP" : "artdaqEventBuilderApps",
"APPLICATION" : "artdaqEventBuilder",
"SUPERVISOR_CONFIGURATION" : "TheSupervisorConfiguration",
"SUPERVISOR_UID" : "artdaqEventBuilder0",
"STATUS" : "On",
"CLASS" : "ots::EventBuilderApp",
"ID" : "230",
"INSTANCE" : "1",
"NETWORK" : "local",
"GROUP" : "daq",
"MODULE" : "/home/rrivera/ots/build_slf6.x86_64/otsdaq/lib/libEventBuilderApp.so"
},
{
"APPLICATION_GROUP" : "artdaqAggregatorApps",
"APPLICATION" : "artdaqAggregator",
"SUPERVISOR_CONFIGURATION" : "TheSupervisorConfiguration",
"SUPERVISOR_UID" : "artdaqAggregator0",
"STATUS" : "On",
"CLASS" : "ots::AggregatorApp",
"ID" : "240",
"INSTANCE" : "1",
"NETWORK" : "local",
"GROUP" : "daq",
"MODULE" : "/home/rrivera/ots/build_slf6.x86_64/otsdaq/lib/libAggregatorApp.so"
}
]
},
"metadata" : {
"comments" : {
"empty" : "empty"
}
},
"search" : [
{
"name" : "find any",
"query" : "not defined"
}
]
},
"source" : {
"encoding" : "base64",
"format" : "json",
"rawdata" : "as"
},
"version" : "7",
"configurations" : [
{
"name" : "notprovided",
"assigned" : "Tue Oct 11 17:21:24 2016"
},
{
"name" : "myContext_v7",
"assigned" : "Tue Oct 11 17:21:32 2016"
},
{
"name" : "myContext_v8",
"assigned" : "Thu Oct 20 11:19:48 2016"
},
{
"name" : "myContext_v12",
"assigned" : "Thu Oct 20 11:54:20 2016"
},
{
"name" : "aaContext_v0",
"assigned" : "Thu Oct 20 12:03:38 2016"
},
{
"name" : "aaContext_v1",
"assigned" : "Thu Oct 20 16:44:24 2016"
}
],
"aliases" : {
"active" : [

],
"history" : [

]
},
"changelog" : "empty",
"bookkeeping" : {
"isdeleted" : false,
"isreadonly" : true,
"created" : "Tue Dec 29 18:19:25 2015",
"updates" : [
{
"addToGlobalConfig" : "Tue Oct 11 17:21:24 2016"
},
{
"setVersion" : "Tue Oct 11 17:21:24 2016"
},
{
"setConfigurableEntity" : "Tue Oct 11 17:21:24 2016"
},
{
"addToGlobalConfig" : "Tue Oct 11 17:21:32 2016"
},
{
"addToGlobalConfig" : "Thu Oct 20 11:19:48 2016"
},
{
"addToGlobalConfig" : "Thu Oct 20 11:54:20 2016"
},
{
"addToGlobalConfig" : "Thu Oct 20 12:03:38 2016"
},
{
"addToGlobalConfig" : "Thu Oct 20 16:44:24 2016"
}
]
},
"configurable_entity" : {
"name" : "OTSROOT"
},
"_id" : {
"_oid" : "9065bd3cde1b4e84b43810f9"
}
}