{
"version" : {
"0" : [
"6d834841b7ec46589a939bdd"
],
"1" : [
"dfc268a23aeb4ce1b29e343a"
],
"2" : [
"81d3b2cfd01c4d72a50c1709"
],
"3" : [
"6211bee148eb424bac3c0030"
],
"4" : [
"5d9df741965545d0b1a0877b"
],
"5" : [
"d3e97c200fed463b8905e3b7"
],
"6" : [
"800ec32907ba4409b566f5d4"
],
"7" : [
"9065bd3cde1b4e84b43810f9"
],
"8" : [
"65bc2719d02c493db7faaef5"
],
"9" : [
"c81508a1ec52435c9cd173d6"
],
"10" : [
"519803c2145a4ded9afa0f7e"
],
"11" : [
"2bfdb0cdec5c4250b20bc4b1"
],
"12" : [
"82c2a57143da4a8c98f677d7"
],
"13" : [
"afc457990ee744369a3d82ae"
]
},
"configurations.name" : {
"notprovided" : [
"2bfdb0cdec5c4250b20bc4b1",
"519803c2145a4ded9afa0f7e",
"5d9df741965545d0b1a0877b",
"6211bee148eb424bac3c0030",
"65bc2719d02c493db7faaef5",
"6d834841b7ec46589a939bdd",
"800ec32907ba4409b566f5d4",
"81d3b2cfd01c4d72a50c1709",
"82c2a57143da4a8c98f677d7",
"9065bd3cde1b4e84b43810f9",
"afc457990ee744369a3d82ae",
"c81508a1ec52435c9cd173d6",
"d3e97c200fed463b8905e3b7",
"dfc268a23aeb4ce1b29e343a"
],
"myContext_v0" : [
"6d834841b7ec46589a939bdd"
],
"myContext_v1" : [
"6d834841b7ec46589a939bdd"
],
"myContext_v2" : [
"6d834841b7ec46589a939bdd"
],
"myContext_v3" : [
"dfc268a23aeb4ce1b29e343a"
],
"myContext_v4" : [
"6211bee148eb424bac3c0030"
],
"myContext_v5" : [
"d3e97c200fed463b8905e3b7"
],
"lorenzoContext_v0" : [
"d3e97c200fed463b8905e3b7"
],
"myContext_v6" : [
"800ec32907ba4409b566f5d4"
],
"myContext_v7" : [
"9065bd3cde1b4e84b43810f9"
],
"myContext_v8" : [
"9065bd3cde1b4e84b43810f9"
],
"myContext_v12" : [
"9065bd3cde1b4e84b43810f9"
],
"aaContext_v0" : [
"9065bd3cde1b4e84b43810f9"
],
"aaContext_v1" : [
"9065bd3cde1b4e84b43810f9"
],
"aaContext_v2" : [
"65bc2719d02c493db7faaef5"
],
"aaContext_v3" : [
"65bc2719d02c493db7faaef5"
],
"aaContext_v4" : [
"519803c2145a4ded9afa0f7e"
],
"aaContext_v5" : [
"519803c2145a4ded9afa0f7e"
],
"aaContext_v6" : [
"519803c2145a4ded9afa0f7e"
],
"exampleContext_v0" : [
"519803c2145a4ded9afa0f7e"
],
"exampleContext_v1" : [
"519803c2145a4ded9afa0f7e"
],
"exampleContext_v2" : [
"519803c2145a4ded9afa0f7e"
],
"exampleContext_v3" : [
"519803c2145a4ded9afa0f7e"
],
"exampleContext_v4" : [
"2bfdb0cdec5c4250b20bc4b1"
],
"exampleContext_v5" : [
"82c2a57143da4a8c98f677d7"
],
"exampleContext_v6" : [
"afc457990ee744369a3d82ae"
],
"exampleContext_v7" : [
"afc457990ee744369a3d82ae"
],
"exampleContext_v8" : [
"afc457990ee744369a3d82ae"
],
"exampleContext_v9" : [
"afc457990ee744369a3d82ae"
],
"exampleContext_v10" : [
"afc457990ee744369a3d82ae"
],
"exampleContext_v11" : [
"afc457990ee744369a3d82ae"
],
"exampleContext_v12" : [
"afc457990ee744369a3d82ae"
]
},
"configurable_entity.name" : {
"OTSROOT" : [
"2bfdb0cdec5c4250b20bc4b1",
"519803c2145a4ded9afa0f7e",
"5d9df741965545d0b1a0877b",
"6211bee148eb424bac3c0030",
"65bc2719d02c493db7faaef5",
"6d834841b7ec46589a939bdd",
"800ec32907ba4409b566f5d4",
"81d3b2cfd01c4d72a50c1709",
"82c2a57143da4a8c98f677d7",
"9065bd3cde1b4e84b43810f9",
"afc457990ee744369a3d82ae",
"c81508a1ec52435c9cd173d6",
"d3e97c200fed463b8905e3b7",
"dfc268a23aeb4ce1b29e343a"
]
}
}