{
"version" : {
"0" : [
"169a9483fe784e5abc749cd6"
]
},
"configurations.name" : {
"notprovided" : [
"169a9483fe784e5abc749cd6"
],
"configGroup_v19" : [
"169a9483fe784e5abc749cd6"
],
"configGroup_v22" : [
"169a9483fe784e5abc749cd6"
],
"configGroup_v23" : [
"169a9483fe784e5abc749cd6"
]
},
"configurable_entity.name" : {
"OTSROOT" : [
"169a9483fe784e5abc749cd6"
]
}
}