{
"version" : {
"0" : [
"0fbf10d3de8c442f9809d9b4"
],
"1" : [
"0f1d71f520a543cbad6bc7d9"
],
"3" : [
"2b67f857dfb44ba7bbc7ffb4"
],
"4" : [
"7380fabc66a34e2db991f196"
],
"5" : [
"692e02e934ee455e8649d7ff"
],
"6" : [
"28b8f344c5eb4a3bac6e62f8"
],
"7" : [
"85051702bc3a4153b178f45e"
],
"8" : [
"329ba069f07546a584d751c9"
],
"9" : [
"8e4eac0c02e945cebeb0a57c"
],
"10" : [
"a2685cd3cd5c474bb3a35018"
],
"11" : [
"0d85972ef4e0483d87e775e5"
],
"12" : [
"5b71a855052d4296b0607ed7"
],
"13" : [
"0bc180f9df1d4ff9b7b24935"
]
},
"configurations.name" : {
"notprovided" : [
"0bc180f9df1d4ff9b7b24935",
"0d85972ef4e0483d87e775e5",
"0f1d71f520a543cbad6bc7d9",
"0fbf10d3de8c442f9809d9b4",
"28b8f344c5eb4a3bac6e62f8",
"2b67f857dfb44ba7bbc7ffb4",
"329ba069f07546a584d751c9",
"5b71a855052d4296b0607ed7",
"692e02e934ee455e8649d7ff",
"7380fabc66a34e2db991f196",
"85051702bc3a4153b178f45e",
"8e4eac0c02e945cebeb0a57c",
"a2685cd3cd5c474bb3a35018"
],
"myConfig_v0" : [
"2b67f857dfb44ba7bbc7ffb4"
],
"lusw_v5" : [
"0fbf10d3de8c442f9809d9b4"
],
"lusw_v6" : [
"0fbf10d3de8c442f9809d9b4"
],
"configGroup_v0" : [
"0fbf10d3de8c442f9809d9b4"
],
"configGroup_v1" : [
"0fbf10d3de8c442f9809d9b4"
],
"aaConfig_v0" : [
"7380fabc66a34e2db991f196"
],
"configGroup_v2" : [
"0fbf10d3de8c442f9809d9b4"
],
"configGroup_v3" : [
"0fbf10d3de8c442f9809d9b4"
],
"configGroup_v4" : [
"0fbf10d3de8c442f9809d9b4"
],
"configGroup_v5" : [
"0fbf10d3de8c442f9809d9b4"
],
"configGroup_v6" : [
"0fbf10d3de8c442f9809d9b4"
],
"configGroup_v7" : [
"0fbf10d3de8c442f9809d9b4"
],
"configGroup_v8" : [
"0fbf10d3de8c442f9809d9b4"
],
"configGroup_v9" : [
"0fbf10d3de8c442f9809d9b4"
],
"configGroup_v10" : [
"0fbf10d3de8c442f9809d9b4"
],
"configGroup_v11" : [
"0fbf10d3de8c442f9809d9b4"
],
"configGroup_v12" : [
"692e02e934ee455e8649d7ff"
],
"configGroup_v13" : [
"85051702bc3a4153b178f45e"
],
"configGroup_v14" : [
"85051702bc3a4153b178f45e"
],
"configGroup_v15" : [
"85051702bc3a4153b178f45e"
],
"configGroup_v16" : [
"85051702bc3a4153b178f45e"
],
"configGroup_v17" : [
"85051702bc3a4153b178f45e"
],
"configGroup_v18" : [
"85051702bc3a4153b178f45e"
],
"PhysicsWizToLatest_v0" : [
"85051702bc3a4153b178f45e"
],
"configGroup_v19" : [
"85051702bc3a4153b178f45e"
],
"configGroup_v20" : [
"85051702bc3a4153b178f45e"
],
"configGroup_v21" : [
"85051702bc3a4153b178f45e"
],
"configGroup_v22" : [
"85051702bc3a4153b178f45e"
],
"configGroup_v23" : [
"85051702bc3a4153b178f45e"
],
"configGroup_v24" : [
"85051702bc3a4153b178f45e"
],
"configGroup_v25" : [
"85051702bc3a4153b178f45e"
],
"configGroup_v26" : [
"85051702bc3a4153b178f45e"
],
"configGroup_v27" : [
"85051702bc3a4153b178f45e"
],
"configGroup_v28" : [
"85051702bc3a4153b178f45e"
],
"configGroup_v29" : [
"85051702bc3a4153b178f45e"
],
"configGroup_v30" : [
"85051702bc3a4153b178f45e"
],
"configGroup_v31" : [
"329ba069f07546a584d751c9"
],
"configGroup_v32" : [
"329ba069f07546a584d751c9"
],
"configGroup_v33" : [
"329ba069f07546a584d751c9"
],
"configGroup_v34" : [
"329ba069f07546a584d751c9"
],
"configGroup_v35" : [
"329ba069f07546a584d751c9"
],
"configGroup_v36" : [
"329ba069f07546a584d751c9"
],
"configGroup_v37" : [
"329ba069f07546a584d751c9"
],
"configGroup_v38" : [
"329ba069f07546a584d751c9"
],
"configGroup_v39" : [
"0d85972ef4e0483d87e775e5"
],
"configGroup_v40" : [
"0d85972ef4e0483d87e775e5"
],
"configGroup_v41" : [
"0d85972ef4e0483d87e775e5"
],
"configGroup_v42" : [
"0d85972ef4e0483d87e775e5"
],
"configGroup_v43" : [
"5b71a855052d4296b0607ed7"
],
"configGroup_v44" : [
"0bc180f9df1d4ff9b7b24935"
],
"configGroup_v45" : [
"0bc180f9df1d4ff9b7b24935"
],
"configGroup_v46" : [
"0bc180f9df1d4ff9b7b24935"
],
"configGroup_v47" : [
"0bc180f9df1d4ff9b7b24935"
]
},
"configurable_entity.name" : {
"OTSROOT" : [
"0bc180f9df1d4ff9b7b24935",
"0d85972ef4e0483d87e775e5",
"0f1d71f520a543cbad6bc7d9",
"0fbf10d3de8c442f9809d9b4",
"28b8f344c5eb4a3bac6e62f8",
"2b67f857dfb44ba7bbc7ffb4",
"329ba069f07546a584d751c9",
"5b71a855052d4296b0607ed7",
"692e02e934ee455e8649d7ff",
"7380fabc66a34e2db991f196",
"85051702bc3a4153b178f45e",
"8e4eac0c02e945cebeb0a57c",
"a2685cd3cd5c474bb3a35018"
]
}
}