{
"document" : {
"data" : {
"NAME" : "FEWR_PURDUE_FSSR_INTERFACE_CONFIGURATION",
"COMMENT" : "comment_ \" \" ",
"AUTHOR" : "",
"CREATION_TIME" : 1475700062,
"COL_TYPES" : {
"INTERFACE_ID" : "VARCHAR2",
"STATUS" : "VARCHAR2",
"FIRMWARE_VERSION" : "NUMBER",
"IP_ADDRESS" : "VARCHAR2",
"PORT" : "NUMBER",
"INTERFACE_IP_ADDRESS" : "VARCHAR2",
"INTERFACE_PORT" : "NUMBER",
"STREAMING_IP_ADDRESS" : "VARCHAR2",
"STREAMING_PORT" : "NUMBER",
"CLOCK_SELECT" : "VARCHAR2",
"CLOCK_SPEED_MHZ" : "NUMBER",
"CHANNEL0_STATUS" : "VARCHAR2",
"CHANNEL1_STATUS" : "VARCHAR2",
"CHANNEL2_STATUS" : "VARCHAR2",
"CHANNEL3_STATUS" : "VARCHAR2",
"CHANNEL4_STATUS" : "VARCHAR2",
"CHANNEL5_STATUS" : "VARCHAR2"
},
"DATA_SET" : [
{
"INTERFACE_ID" : "PurdueFSSR0",
"STATUS" : "on",
"FIRMWARE_VERSION" : 1,
"IP_ADDRESS" : "192.168.133.20",
"PORT" : 47000,
"INTERFACE_IP_ADDRESS" : "192.168.133.1",
"INTERFACE_PORT" : 10000,
"STREAMING_IP_ADDRESS" : "192.168.133.1",
"STREAMING_PORT" : 47000,
"CLOCK_SELECT" : "External",
"CLOCK_SPEED_MHZ" : 13,
"CHANNEL0_STATUS" : "on",
"CHANNEL1_STATUS" : "on",
"CHANNEL2_STATUS" : "on",
"CHANNEL3_STATUS" : "on",
"CHANNEL4_STATUS" : "off",
"CHANNEL5_STATUS" : "off"
},
{
"INTERFACE_ID" : "PurdueFSSR1",
"STATUS" : "on",
"FIRMWARE_VERSION" : 1,
"IP_ADDRESS" : "192.168.133.36",
"PORT" : 47000,
"INTERFACE_IP_ADDRESS" : "192.168.133.1",
"INTERFACE_PORT" : 10001,
"STREAMING_IP_ADDRESS" : "192.168.133.1",
"STREAMING_PORT" : 47001,
"CLOCK_SELECT" : "External",
"CLOCK_SPEED_MHZ" : 13,
"CHANNEL0_STATUS" : "on",
"CHANNEL1_STATUS" : "on",
"CHANNEL2_STATUS" : "on",
"CHANNEL3_STATUS" : "on",
"CHANNEL4_STATUS" : "off",
"CHANNEL5_STATUS" : "off"
},
{
"INTERFACE_ID" : "PurdueFSSR2",
"STATUS" : "on",
"FIRMWARE_VERSION" : 1,
"IP_ADDRESS" : "192.168.133.132",
"PORT" : 47000,
"INTERFACE_IP_ADDRESS" : "192.168.133.1",
"INTERFACE_PORT" : 10002,
"STREAMING_IP_ADDRESS" : "192.168.133.1",
"STREAMING_PORT" : 47002,
"CLOCK_SELECT" : "External",
"CLOCK_SPEED_MHZ" : 13,
"CHANNEL0_STATUS" : "on",
"CHANNEL1_STATUS" : "on",
"CHANNEL2_STATUS" : "on",
"CHANNEL3_STATUS" : "on",
"CHANNEL4_STATUS" : "on",
"CHANNEL5_STATUS" : "on"
}
]
},
"metadata" : {
"comments" : {
"empty" : "empty"
}
},
"search" : [
{
"name" : "find any",
"query" : "not defined"
}
]
},
"source" : {
"encoding" : "base64",
"format" : "json",
"rawdata" : "as"
},
"version" : "3",
"configurations" : [
{
"name" : "notprovided",
"assigned" : "Wed Oct  5 15:41:02 2016"
},
{
"name" : "myConfig_v0",
"assigned" : "Wed Oct 12 16:36:07 2016"
},
{
"name" : "aaConfig_v0",
"assigned" : "Thu Oct 20 15:23:15 2016"
}
],
"aliases" : {
"active" : [

],
"history" : [

]
},
"changelog" : "empty",
"bookkeeping" : {
"isdeleted" : false,
"isreadonly" : true,
"created" : "Tue Dec 29 18:19:25 2015",
"updates" : [
{
"addToGlobalConfig" : "Wed Oct  5 15:41:02 2016"
},
{
"setVersion" : "Wed Oct  5 15:41:02 2016"
},
{
"setConfigurableEntity" : "Wed Oct  5 15:41:02 2016"
},
{
"addToGlobalConfig" : "Wed Oct 12 16:36:07 2016"
},
{
"addToGlobalConfig" : "Thu Oct 20 15:23:15 2016"
}
]
},
"configurable_entity" : {
"name" : "OTSROOT"
},
"_id" : {
"_oid" : "c201186afcf9470192890b76"
}
}