{
"version" : {
"0" : [
"0b04bf98bd6e420c861969bb"
],
"1" : [
"d2c6f5d7a4264629b406bd16"
],
"3" : [
"2fee48b226b54fdc807139e6"
],
"4" : [
"34f5a12e48634aeb9c90e6ed"
],
"5" : [
"de9f36acf56b4efc9eab5ffc"
],
"6" : [
"cac74d20839c472690dc79e3"
],
"7" : [
"7e9fab7269b646ea83d91832"
],
"8" : [
"e6d02a965d19498db5a7a7e2"
]
},
"configurations.name" : {
"notprovided" : [
"0b04bf98bd6e420c861969bb",
"2fee48b226b54fdc807139e6",
"34f5a12e48634aeb9c90e6ed",
"7e9fab7269b646ea83d91832",
"cac74d20839c472690dc79e3",
"d2c6f5d7a4264629b406bd16",
"de9f36acf56b4efc9eab5ffc",
"e6d02a965d19498db5a7a7e2"
],
"myConfig_v0" : [
"2fee48b226b54fdc807139e6"
],
"lusw_v5" : [
"0b04bf98bd6e420c861969bb"
],
"lusw_v6" : [
"0b04bf98bd6e420c861969bb"
],
"configGroup_v0" : [
"0b04bf98bd6e420c861969bb"
],
"configGroup_v1" : [
"0b04bf98bd6e420c861969bb"
],
"aaConfig_v0" : [
"2fee48b226b54fdc807139e6"
],
"configGroup_v2" : [
"0b04bf98bd6e420c861969bb"
],
"configGroup_v3" : [
"0b04bf98bd6e420c861969bb"
],
"configGroup_v4" : [
"0b04bf98bd6e420c861969bb"
],
"configGroup_v5" : [
"0b04bf98bd6e420c861969bb"
],
"configGroup_v6" : [
"0b04bf98bd6e420c861969bb"
],
"configGroup_v7" : [
"0b04bf98bd6e420c861969bb"
],
"configGroup_v8" : [
"0b04bf98bd6e420c861969bb"
],
"configGroup_v9" : [
"34f5a12e48634aeb9c90e6ed"
],
"configGroup_v10" : [
"0b04bf98bd6e420c861969bb"
],
"configGroup_v11" : [
"0b04bf98bd6e420c861969bb"
],
"configGroup_v12" : [
"0b04bf98bd6e420c861969bb"
],
"configGroup_v13" : [
"0b04bf98bd6e420c861969bb"
],
"configGroup_v14" : [
"0b04bf98bd6e420c861969bb"
],
"configGroup_v15" : [
"0b04bf98bd6e420c861969bb"
],
"configGroup_v16" : [
"0b04bf98bd6e420c861969bb"
],
"configGroup_v17" : [
"0b04bf98bd6e420c861969bb"
],
"configGroup_v18" : [
"0b04bf98bd6e420c861969bb"
],
"PhysicsWizToLatest_v0" : [
"34f5a12e48634aeb9c90e6ed"
],
"configGroup_v19" : [
"0b04bf98bd6e420c861969bb"
],
"configGroup_v20" : [
"0b04bf98bd6e420c861969bb"
],
"configGroup_v21" : [
"0b04bf98bd6e420c861969bb"
],
"configGroup_v22" : [
"0b04bf98bd6e420c861969bb"
],
"configGroup_v23" : [
"0b04bf98bd6e420c861969bb"
],
"configGroup_v24" : [
"0b04bf98bd6e420c861969bb"
],
"configGroup_v25" : [
"0b04bf98bd6e420c861969bb"
],
"configGroup_v26" : [
"0b04bf98bd6e420c861969bb"
],
"configGroup_v27" : [
"cac74d20839c472690dc79e3"
],
"configGroup_v28" : [
"cac74d20839c472690dc79e3"
],
"configGroup_v29" : [
"7e9fab7269b646ea83d91832"
],
"configGroup_v30" : [
"7e9fab7269b646ea83d91832"
],
"configGroup_v31" : [
"7e9fab7269b646ea83d91832"
],
"configGroup_v32" : [
"7e9fab7269b646ea83d91832"
],
"configGroup_v33" : [
"7e9fab7269b646ea83d91832"
],
"configGroup_v34" : [
"7e9fab7269b646ea83d91832"
],
"configGroup_v35" : [
"7e9fab7269b646ea83d91832"
],
"configGroup_v36" : [
"7e9fab7269b646ea83d91832"
],
"configGroup_v37" : [
"e6d02a965d19498db5a7a7e2"
],
"configGroup_v38" : [
"e6d02a965d19498db5a7a7e2"
],
"configGroup_v39" : [
"e6d02a965d19498db5a7a7e2"
],
"configGroup_v40" : [
"e6d02a965d19498db5a7a7e2"
],
"configGroup_v41" : [
"e6d02a965d19498db5a7a7e2"
],
"configGroup_v42" : [
"e6d02a965d19498db5a7a7e2"
],
"configGroup_v43" : [
"e6d02a965d19498db5a7a7e2"
],
"configGroup_v44" : [
"e6d02a965d19498db5a7a7e2"
],
"configGroup_v45" : [
"e6d02a965d19498db5a7a7e2"
],
"configGroup_v46" : [
"e6d02a965d19498db5a7a7e2"
],
"configGroup_v47" : [
"e6d02a965d19498db5a7a7e2"
]
},
"configurable_entity.name" : {
"OTSROOT" : [
"0b04bf98bd6e420c861969bb",
"2fee48b226b54fdc807139e6",
"34f5a12e48634aeb9c90e6ed",
"7e9fab7269b646ea83d91832",
"cac74d20839c472690dc79e3",
"d2c6f5d7a4264629b406bd16",
"de9f36acf56b4efc9eab5ffc",
"e6d02a965d19498db5a7a7e2"
]
}
}