{
"version" : {
"0" : [
"55d35b435ddc41ac93d3d113"
],
"1" : [
"0829455aaca640ab8351a472"
],
"2" : [
"2155b56111374e0082d6948b"
],
"3" : [
"7b041778e5b34ec8ab81f718"
],
"4" : [
"ca4f2cb1c4fd4fdea892f5b0"
],
"5" : [
"90ed81ef85964540b1f1511f"
],
"6" : [
"05e85a97fbb84d44a8966034"
]
},
"configurations.name" : {
"notprovided" : [
"05e85a97fbb84d44a8966034",
"0829455aaca640ab8351a472",
"2155b56111374e0082d6948b",
"55d35b435ddc41ac93d3d113",
"7b041778e5b34ec8ab81f718",
"90ed81ef85964540b1f1511f",
"ca4f2cb1c4fd4fdea892f5b0"
],
"myConfig_v0" : [
"0829455aaca640ab8351a472"
],
"lusw_v5" : [
"55d35b435ddc41ac93d3d113"
],
"lusw_v6" : [
"55d35b435ddc41ac93d3d113"
],
"configGroup_v0" : [
"55d35b435ddc41ac93d3d113"
],
"configGroup_v1" : [
"55d35b435ddc41ac93d3d113"
],
"aaConfig_v0" : [
"0829455aaca640ab8351a472"
],
"configGroup_v2" : [
"55d35b435ddc41ac93d3d113"
],
"configGroup_v3" : [
"55d35b435ddc41ac93d3d113"
],
"configGroup_v4" : [
"55d35b435ddc41ac93d3d113"
],
"configGroup_v5" : [
"55d35b435ddc41ac93d3d113"
],
"configGroup_v6" : [
"55d35b435ddc41ac93d3d113"
],
"configGroup_v7" : [
"55d35b435ddc41ac93d3d113"
],
"configGroup_v8" : [
"55d35b435ddc41ac93d3d113"
],
"configGroup_v9" : [
"55d35b435ddc41ac93d3d113"
],
"configGroup_v10" : [
"55d35b435ddc41ac93d3d113"
],
"configGroup_v11" : [
"55d35b435ddc41ac93d3d113"
],
"configGroup_v12" : [
"55d35b435ddc41ac93d3d113"
],
"configGroup_v13" : [
"55d35b435ddc41ac93d3d113"
],
"configGroup_v14" : [
"55d35b435ddc41ac93d3d113"
],
"configGroup_v15" : [
"55d35b435ddc41ac93d3d113"
],
"configGroup_v16" : [
"55d35b435ddc41ac93d3d113"
],
"configGroup_v17" : [
"55d35b435ddc41ac93d3d113"
],
"configGroup_v18" : [
"55d35b435ddc41ac93d3d113"
],
"PhysicsWizToLatest_v0" : [
"0829455aaca640ab8351a472"
],
"configGroup_v19" : [
"55d35b435ddc41ac93d3d113"
],
"configGroup_v20" : [
"55d35b435ddc41ac93d3d113"
],
"configGroup_v21" : [
"55d35b435ddc41ac93d3d113"
],
"configGroup_v22" : [
"55d35b435ddc41ac93d3d113"
],
"configGroup_v23" : [
"55d35b435ddc41ac93d3d113"
],
"configGroup_v24" : [
"55d35b435ddc41ac93d3d113"
],
"configGroup_v25" : [
"55d35b435ddc41ac93d3d113"
],
"configGroup_v26" : [
"55d35b435ddc41ac93d3d113"
],
"configGroup_v27" : [
"55d35b435ddc41ac93d3d113"
],
"configGroup_v28" : [
"55d35b435ddc41ac93d3d113"
],
"configGroup_v29" : [
"55d35b435ddc41ac93d3d113"
],
"configGroup_v30" : [
"55d35b435ddc41ac93d3d113"
],
"configGroup_v31" : [
"55d35b435ddc41ac93d3d113"
],
"configGroup_v32" : [
"2155b56111374e0082d6948b"
],
"configGroup_v33" : [
"2155b56111374e0082d6948b"
],
"configGroup_v34" : [
"2155b56111374e0082d6948b"
],
"configGroup_v35" : [
"2155b56111374e0082d6948b"
],
"configGroup_v36" : [
"2155b56111374e0082d6948b"
],
"configGroup_v37" : [
"2155b56111374e0082d6948b"
],
"configGroup_v38" : [
"2155b56111374e0082d6948b"
],
"configGroup_v39" : [
"7b041778e5b34ec8ab81f718"
],
"configGroup_v40" : [
"7b041778e5b34ec8ab81f718"
],
"configGroup_v41" : [
"ca4f2cb1c4fd4fdea892f5b0"
],
"configGroup_v42" : [
"ca4f2cb1c4fd4fdea892f5b0"
],
"configGroup_v43" : [
"ca4f2cb1c4fd4fdea892f5b0"
],
"configGroup_v44" : [
"ca4f2cb1c4fd4fdea892f5b0"
],
"configGroup_v45" : [
"05e85a97fbb84d44a8966034"
],
"configGroup_v46" : [
"05e85a97fbb84d44a8966034"
],
"configGroup_v47" : [
"05e85a97fbb84d44a8966034"
]
},
"configurable_entity.name" : {
"OTSROOT" : [
"05e85a97fbb84d44a8966034",
"0829455aaca640ab8351a472",
"2155b56111374e0082d6948b",
"55d35b435ddc41ac93d3d113",
"7b041778e5b34ec8ab81f718",
"90ed81ef85964540b1f1511f",
"ca4f2cb1c4fd4fdea892f5b0"
]
}
}