{
"version" : {
"0" : [
"c06fd5a1fa1a4ac2b93d1f24"
],
"1" : [
"c603ed2621e44f7e85c34195"
]
},
"configurations.name" : {
"notprovided" : [
"c06fd5a1fa1a4ac2b93d1f24",
"c603ed2621e44f7e85c34195"
],
"myConfig_v0" : [
"c603ed2621e44f7e85c34195"
],
"aaConfig_v0" : [
"c603ed2621e44f7e85c34195"
],
"configGroup_v2" : [
"c06fd5a1fa1a4ac2b93d1f24"
],
"PhysicsWizToLatest_v0" : [
"c603ed2621e44f7e85c34195"
]
},
"configurable_entity.name" : {
"OTSROOT" : [
"c06fd5a1fa1a4ac2b93d1f24",
"c603ed2621e44f7e85c34195"
]
}
}