{
"document" : {
"data" : {
"NAME" : "DESKTOP_ICON_CONFIGURATION",
"COMMENT" : "comment_ \" \" ",
"AUTHOR" : "",
"CREATION_TIME" : 1476982396,
"COL_TYPES" : {
"ICON_NAME" : "VARCHAR2",
"STATUS" : "VARCHAR2",
"CAPTION" : "VARCHAR2",
"ALTERNATE_TEXT" : "VARCHAR2",
"FORCE_ONLY_ONE_INSTANCE" : "VARCHAR2",
"REQUIRED_PERMISSION_LEVEL" : "VARCHAR2",
"IMAGE_URL" : "VARCHAR2",
"WINDOW_CONTENT_URL" : "VARCHAR2",
"LINK_TO_APPLICATION_CONFIGURATION" : "VARCHAR2",
"APPLICATION_UID" : "VARCHAR2",
"COMMENT_DESCRIPTION" : "VARCHAR2",
"AUTHOR" : "VARCHAR2",
"RECORD_INSERTION_TIME" : "TIMESTAMP WITH TIMEZONE"
},
"DATA_SET" : [
{
"ICON_NAME" : "Calibrate",
"STATUS" : "Off",
"CAPTION" : "Calibrate",
"ALTERNATE_TEXT" : "CAL",
"FORCE_ONLY_ONE_INSTANCE" : "True",
"REQUIRED_PERMISSION_LEVEL" : "100",
"IMAGE_URL" : "icon-Calibrate.png",
"WINDOW_CONTENT_URL" : "/WebPath/html/Calibrations.html",
"LINK_TO_APPLICATION_CONFIGURATION" : "",
"APPLICATION_UID" : "",
"COMMENT_DESCRIPTION" : "",
"AUTHOR" : "admin",
"RECORD_INSERTION_TIME" : "Thu Oct 20 11:53:16 2016 CDT"
},
{
"ICON_NAME" : "Physics",
"STATUS" : "On",
"CAPTION" : "Physics",
"ALTERNATE_TEXT" : "PHY",
"FORCE_ONLY_ONE_INSTANCE" : "True",
"REQUIRED_PERMISSION_LEVEL" : "1",
"IMAGE_URL" : "icon-Physics.gif",
"WINDOW_CONTENT_URL" : "/WebPath/html/Physics.html",
"LINK_TO_APPLICATION_CONFIGURATION" : "",
"APPLICATION_UID" : "",
"COMMENT_DESCRIPTION" : "",
"AUTHOR" : "admin",
"RECORD_INSERTION_TIME" : "Thu Oct 20 11:53:16 2016 CDT"
},
{
"ICON_NAME" : "Chat",
"STATUS" : "Off",
"CAPTION" : "Chat",
"ALTERNATE_TEXT" : "CHAT",
"FORCE_ONLY_ONE_INSTANCE" : "True",
"REQUIRED_PERMISSION_LEVEL" : "1",
"IMAGE_URL" : "icon-Chat.png",
"WINDOW_CONTENT_URL" : "/urn:xdaq-application:lid=",
"LINK_TO_APPLICATION_CONFIGURATION" : "XDAQApplicationConfiguration",
"APPLICATION_UID" : "ChatSupervisor",
"COMMENT_DESCRIPTION" : "The id number will be appended from the linked XDAQ supervisor urn",
"AUTHOR" : "admin",
"RECORD_INSERTION_TIME" : "Thu Oct 20 11:53:16 2016 CDT"
},
{
"ICON_NAME" : "SystemStatus",
"STATUS" : "On",
"CAPTION" : "System Status",
"ALTERNATE_TEXT" : "SYS",
"FORCE_ONLY_ONE_INSTANCE" : "True",
"REQUIRED_PERMISSION_LEVEL" : "1",
"IMAGE_URL" : "icon-SystemStatus.png",
"WINDOW_CONTENT_URL" : "/WebPath/html/SystemStatus.html",
"LINK_TO_APPLICATION_CONFIGURATION" : "",
"APPLICATION_UID" : "",
"COMMENT_DESCRIPTION" : "",
"AUTHOR" : "admin",
"RECORD_INSERTION_TIME" : "Thu Oct 20 11:53:16 2016 CDT"
},
{
"ICON_NAME" : "Logbook",
"STATUS" : "On",
"CAPTION" : "Logbook",
"ALTERNATE_TEXT" : "LOG",
"FORCE_ONLY_ONE_INSTANCE" : "True",
"REQUIRED_PERMISSION_LEVEL" : "1",
"IMAGE_URL" : "icon-Logbook.png",
"WINDOW_CONTENT_URL" : "/urn:xdaq-application:lid=",
"LINK_TO_APPLICATION_CONFIGURATION" : "XDAQApplicationConfiguration",
"APPLICATION_UID" : "LogbookSupervisor",
"COMMENT_DESCRIPTION" : "lid number must match XDAQ supervisor urn",
"AUTHOR" : "admin",
"RECORD_INSERTION_TIME" : "Thu Oct 20 11:53:16 2016 CDT"
},
{
"ICON_NAME" : "Visualizer",
"STATUS" : "On",
"CAPTION" : "Visualize",
"ALTERNATE_TEXT" : "VIS",
"FORCE_ONLY_ONE_INSTANCE" : "False",
"REQUIRED_PERMISSION_LEVEL" : "10",
"IMAGE_URL" : "icon-Visualizer.png",
"WINDOW_CONTENT_URL" : "/WebPath/html/Visualization.html?urn=",
"LINK_TO_APPLICATION_CONFIGURATION" : "XDAQApplicationConfiguration",
"APPLICATION_UID" : "VisualizerSupervisor",
"COMMENT_DESCRIPTION" : "urn must match XDAQ supervisor urn",
"AUTHOR" : "admin",
"RECORD_INSERTION_TIME" : "Thu Oct 20 11:53:16 2016 CDT"
},
{
"ICON_NAME" : "ConfigureGUI",
"STATUS" : "On",
"CAPTION" : "Configure",
"ALTERNATE_TEXT" : "CFG",
"FORCE_ONLY_ONE_INSTANCE" : "False",
"REQUIRED_PERMISSION_LEVEL" : "10",
"IMAGE_URL" : "icon-Configure.png",
"WINDOW_CONTENT_URL" : "/urn:xdaq-application:lid=280/",
"LINK_TO_APPLICATION_CONFIGURATION" : "XDAQApplicationConfiguration",
"APPLICATION_UID" : "ConfigurationGUISupervisor",
"COMMENT_DESCRIPTION" : "lid number must match XDAQ supervisor urn",
"AUTHOR" : "admin",
"RECORD_INSERTION_TIME" : "Thu Oct 20 11:53:16 2016 CDT"
},
{
"ICON_NAME" : "MacroMaker",
"STATUS" : "On",
"CAPTION" : "Macro Maker",
"ALTERNATE_TEXT" : "MM",
"FORCE_ONLY_ONE_INSTANCE" : "True",
"REQUIRED_PERMISSION_LEVEL" : "1",
"IMAGE_URL" : "icon-MacroMaker.png",
"WINDOW_CONTENT_URL" : "/urn:xdaq-application:lid=300/",
"LINK_TO_APPLICATION_CONFIGURATION" : "XDAQApplicationConfiguration",
"APPLICATION_UID" : "MacroMakerSupervisor",
"COMMENT_DESCRIPTION" : "lid number must match XDAQ supervisor urn",
"AUTHOR" : "admin",
"RECORD_INSERTION_TIME" : "Thu Oct 20 11:53:16 2016 CDT"
},
{
"ICON_NAME" : "NOvA Log",
"STATUS" : "Off",
"CAPTION" : "NOvA Log",
"ALTERNATE_TEXT" : "NOVA",
"FORCE_ONLY_ONE_INSTANCE" : "True",
"REQUIRED_PERMISSION_LEVEL" : "1",
"IMAGE_URL" : "0",
"WINDOW_CONTENT_URL" : "http://dbweb6.fnal.gov:8080/ECL/nova/E/index",
"LINK_TO_APPLICATION_CONFIGURATION" : "",
"APPLICATION_UID" : "",
"COMMENT_DESCRIPTION" : "0 means use ALT for icon",
"AUTHOR" : "admin",
"RECORD_INSERTION_TIME" : "Thu Oct 20 11:53:16 2016 CDT"
},
{
"ICON_NAME" : "DB Utilities",
"STATUS" : "Off",
"CAPTION" : "DB Utilities",
"ALTERNATE_TEXT" : "DB",
"FORCE_ONLY_ONE_INSTANCE" : "True",
"REQUIRED_PERMISSION_LEVEL" : "10",
"IMAGE_URL" : "0",
"WINDOW_CONTENT_URL" : "http://127.0.0.1:8080/db/client.html",
"LINK_TO_APPLICATION_CONFIGURATION" : "",
"APPLICATION_UID" : "",
"COMMENT_DESCRIPTION" : "0 means use ALT for icon",
"AUTHOR" : "admin",
"RECORD_INSERTION_TIME" : "Thu Oct 20 11:53:16 2016 CDT"
},
{
"ICON_NAME" : "Console",
"STATUS" : "Off",
"CAPTION" : "Console",
"ALTERNATE_TEXT" : "CON",
"FORCE_ONLY_ONE_INSTANCE" : "True",
"REQUIRED_PERMISSION_LEVEL" : "255",
"IMAGE_URL" : "icon-Console.png",
"WINDOW_CONTENT_URL" : "/WebPath/html/Console.html?urn=260",
"LINK_TO_APPLICATION_CONFIGURATION" : "XDAQApplicationConfiguration",
"APPLICATION_UID" : "ConsolerSupervisor",
"COMMENT_DESCRIPTION" : "urn must match XDAQ supervisor urn",
"AUTHOR" : "admin",
"RECORD_INSERTION_TIME" : "Thu Oct 20 11:53:16 2016 CDT"
}
]
},
"metadata" : {
"comments" : {
"empty" : "empty"
}
},
"search" : [
{
"name" : "find any",
"query" : "not defined"
}
]
},
"source" : {
"encoding" : "base64",
"format" : "json",
"rawdata" : "as"
},
"version" : "6",
"configurations" : [
{
"name" : "notprovided",
"assigned" : "Thu Oct 20 11:53:16 2016"
},
{
"name" : "myContext_v12",
"assigned" : "Thu Oct 20 11:54:20 2016"
}
],
"aliases" : {
"active" : [

],
"history" : [

]
},
"changelog" : "empty",
"bookkeeping" : {
"isdeleted" : false,
"isreadonly" : true,
"created" : "Tue Dec 29 18:19:25 2015",
"updates" : [
{
"addToGlobalConfig" : "Thu Oct 20 11:53:16 2016"
},
{
"setVersion" : "Thu Oct 20 11:53:16 2016"
},
{
"setConfigurableEntity" : "Thu Oct 20 11:53:16 2016"
},
{
"addToGlobalConfig" : "Thu Oct 20 11:54:20 2016"
}
]
},
"configurable_entity" : {
"name" : "OTSROOT"
},
"_id" : {
"_oid" : "c2564bfb6b684910930459f4"
}
}