{
"document" : {
"data" : {
"NAME" : "FE_CONFIGURATION",
"COMMENT" : "comment_ \" \" ",
"AUTHOR" : "",
"CREATION_TIME" : 1477084576,
"COL_TYPES" : {
"SUPERVISOR_TYPE" : "VARCHAR2",
"SUPERVISOR_INSTANCE" : "NUMBER",
"INTERFACE_ID" : "VARCHAR2",
"FRONT_END_TYPE" : "VARCHAR2",
"COMMENT_DESCRIPTION" : "VARCHAR2",
"AUTHOR" : "VARCHAR2",
"RECORD_INSERTION_TIME" : "TIMESTAMP WITH TIMEZONE"
},
"DATA_SET" : [
{
"SUPERVISOR_TYPE" : "FE",
"SUPERVISOR_INSTANCE" : 1,
"INTERFACE_ID" : "OtsFrontEnd",
"FRONT_END_TYPE" : "FEWROtsUDPTemplateInterface",
"COMMENT_DESCRIPTION" : "DEFAULT",
"AUTHOR" : "admin",
"RECORD_INSERTION_TIME" : "Fri Oct 21 16:16:16 2016 CDT"
}
]
},
"metadata" : {
"comments" : {
"empty" : "empty"
}
},
"search" : [
{
"name" : "find any",
"query" : "not defined"
}
]
},
"origin" : {
"format" : "json"
},
"version" : "2",
"configurations" : [
{
"name" : "notprovided",
"assigned" : "Fri Oct 21 16:16:16 2016"
},
{
"name" : "configGroup_v3",
"assigned" : "Fri Oct 21 16:17:14 2016"
},
{
"name" : "configGroup_v4",
"assigned" : "Fri Oct 21 16:30:29 2016"
},
{
"name" : "configGroup_v5",
"assigned" : "Fri Oct 21 16:41:17 2016"
},
{
"name" : "configGroup_v7",
"assigned" : "Tue Oct 25 13:46:19 2016"
},
{
"name" : "configGroup_v8",
"assigned" : "Tue Oct 25 13:54:00 2016"
},
{
"name" : "configGroup_v9",
"assigned" : "Tue Oct 25 13:55:28 2016"
},
{
"name" : "configGroup_v10",
"assigned" : "Tue Oct 25 13:56:11 2016"
}
],
"aliases" : {
"active" : [

],
"history" : [

]
},
"changelog" : "empty",
"bookkeeping" : {
"isdeleted" : false,
"isreadonly" : true,
"created" : "Tue Dec 29 18:19:25 2015",
"updates" : [
{
"addToGlobalConfig" : "Fri Oct 21 16:16:16 2016"
},
{
"setVersion" : "Fri Oct 21 16:16:16 2016"
},
{
"setConfigurableEntity" : "Fri Oct 21 16:16:16 2016"
},
{
"addToGlobalConfig" : "Fri Oct 21 16:17:14 2016"
},
{
"addToGlobalConfig" : "Fri Oct 21 16:30:29 2016"
},
{
"addToGlobalConfig" : "Fri Oct 21 16:41:17 2016"
},
{
"addToGlobalConfig" : "Tue Oct 25 13:46:19 2016"
},
{
"addToGlobalConfig" : "Tue Oct 25 13:54:00 2016"
},
{
"addToGlobalConfig" : "Tue Oct 25 13:55:28 2016"
},
{
"addToGlobalConfig" : "Tue Oct 25 13:56:11 2016"
}
]
},
"configurable_entity" : {
"name" : "OTSROOT"
},
"_id" : {
"_oid" : "a8523d2079f442289419b582"
}
}