{
"document" : {
"data" : {
"NAME" : "OT_DQM_HISTOS_CONSUMER_CONFIGURATION",
"COMMENT" : "comment_ \" \" ",
"AUTHOR" : "",
"CREATION_TIME" : 1477428670,
"COL_TYPES" : {
"PROCESSOR_GROUP_ID" : "VARCHAR2",
"PROCESSOR_UID" : "VARCHAR2",
"FILE_PATH" : "VARCHAR2",
"RADIX_FILE_NAME" : "VARCHAR2",
"SAVE_FILE" : "VARCHAR2",
"COMMENT_DESCRIPTION" : "VARCHAR2",
"AUTHOR" : "VARCHAR2",
"RECORD_INSERTION_TIME" : "TIMESTAMP WITH TIMEZONE"
},
"DATA_SET" : [
{
"PROCESSOR_GROUP_ID" : "VisualBuffer",
"PROCESSOR_UID" : "OTDQMHistos0",
"FILE_PATH" : "/tmp/",
"RADIX_FILE_NAME" : "OTDQMHistos0",
"SAVE_FILE" : "Yes",
"COMMENT_DESCRIPTION" : "",
"AUTHOR" : "admin",
"RECORD_INSERTION_TIME" : "Tue Oct 25 15:51:10 2016 CDT"
}
]
},
"metadata" : {
"comments" : {
"empty" : "empty"
}
},
"search" : [
{
"name" : "find any",
"query" : "not defined"
}
]
},
"origin" : {
"format" : "json"
},
"version" : "0",
"configurations" : [
{
"name" : "notprovided",
"assigned" : "Tue Oct 25 15:51:10 2016"
},
{
"name" : "configGroup_v15",
"assigned" : "Tue Oct 25 15:51:26 2016"
},
{
"name" : "configGroup_v16",
"assigned" : "Tue Oct 25 15:58:25 2016"
},
{
"name" : "configGroup_v17",
"assigned" : "Tue Oct 25 16:02:00 2016"
},
{
"name" : "configGroup_v18",
"assigned" : "Tue Oct 25 16:03:16 2016"
},
{
"name" : "PhysicsWizToLatest_v0",
"assigned" : "Thu Oct 27 15:38:05 2016"
},
{
"name" : "configGroup_v19",
"assigned" : "Thu Oct 27 15:54:47 2016"
},
{
"name" : "configGroup_v20",
"assigned" : "Thu Oct 27 16:44:21 2016"
},
{
"name" : "configGroup_v21",
"assigned" : "Thu Oct 27 16:45:18 2016"
},
{
"name" : "configGroup_v22",
"assigned" : "Thu Oct 27 16:46:48 2016"
},
{
"name" : "configGroup_v23",
"assigned" : "Thu Oct 27 16:47:32 2016"
},
{
"name" : "configGroup_v24",
"assigned" : "Thu Oct 27 16:57:00 2016"
},
{
"name" : "configGroup_v25",
"assigned" : "Fri Oct 28 10:33:30 2016"
},
{
"name" : "configGroup_v26",
"assigned" : "Fri Oct 28 11:13:07 2016"
},
{
"name" : "configGroup_v27",
"assigned" : "Fri Oct 28 11:35:19 2016"
},
{
"name" : "configGroup_v28",
"assigned" : "Fri Oct 28 12:02:07 2016"
},
{
"name" : "configGroup_v29",
"assigned" : "Fri Oct 28 12:09:03 2016"
},
{
"name" : "configGroup_v30",
"assigned" : "Fri Oct 28 12:14:19 2016"
},
{
"name" : "configGroup_v31",
"assigned" : "Fri Oct 28 12:23:13 2016"
},
{
"name" : "configGroup_v32",
"assigned" : "Fri Oct 28 14:16:43 2016"
},
{
"name" : "configGroup_v33",
"assigned" : "Fri Oct 28 14:32:32 2016"
},
{
"name" : "configGroup_v34",
"assigned" : "Mon Nov  7 16:04:24 2016"
},
{
"name" : "configGroup_v35",
"assigned" : "Wed Nov  9 15:42:01 2016"
},
{
"name" : "configGroup_v36",
"assigned" : "Wed Nov  9 16:28:24 2016"
},
{
"name" : "configGroup_v37",
"assigned" : "Thu Nov 10 15:42:30 2016"
},
{
"name" : "configGroup_v38",
"assigned" : "Thu Nov 10 15:43:53 2016"
},
{
"name" : "configGroup_v39",
"assigned" : "Thu Nov 10 16:08:32 2016"
},
{
"name" : "configGroup_v40",
"assigned" : "Thu Nov 10 16:34:14 2016"
},
{
"name" : "configGroup_v41",
"assigned" : "Thu Nov 10 16:35:30 2016"
}
],
"aliases" : {
"active" : [

],
"history" : [

]
},
"changelog" : "empty",
"bookkeeping" : {
"isdeleted" : false,
"isreadonly" : true,
"created" : "Tue Dec 29 18:19:25 2015",
"updates" : [
{
"addToGlobalConfig" : "Tue Oct 25 15:51:10 2016"
},
{
"setVersion" : "Tue Oct 25 15:51:10 2016"
},
{
"setConfigurableEntity" : "Tue Oct 25 15:51:10 2016"
},
{
"addToGlobalConfig" : "Tue Oct 25 15:51:26 2016"
},
{
"addToGlobalConfig" : "Tue Oct 25 15:58:25 2016"
},
{
"addToGlobalConfig" : "Tue Oct 25 16:02:00 2016"
},
{
"addToGlobalConfig" : "Tue Oct 25 16:03:16 2016"
},
{
"addToGlobalConfig" : "Thu Oct 27 15:38:05 2016"
},
{
"addToGlobalConfig" : "Thu Oct 27 15:54:47 2016"
},
{
"addToGlobalConfig" : "Thu Oct 27 16:44:21 2016"
},
{
"addToGlobalConfig" : "Thu Oct 27 16:45:18 2016"
},
{
"addToGlobalConfig" : "Thu Oct 27 16:46:48 2016"
},
{
"addToGlobalConfig" : "Thu Oct 27 16:47:32 2016"
},
{
"addToGlobalConfig" : "Thu Oct 27 16:57:00 2016"
},
{
"addToGlobalConfig" : "Fri Oct 28 10:33:30 2016"
},
{
"addToGlobalConfig" : "Fri Oct 28 11:13:07 2016"
},
{
"addToGlobalConfig" : "Fri Oct 28 11:35:19 2016"
},
{
"addToGlobalConfig" : "Fri Oct 28 12:02:07 2016"
},
{
"addToGlobalConfig" : "Fri Oct 28 12:09:03 2016"
},
{
"addToGlobalConfig" : "Fri Oct 28 12:14:19 2016"
},
{
"addToGlobalConfig" : "Fri Oct 28 12:23:13 2016"
},
{
"addToGlobalConfig" : "Fri Oct 28 14:16:43 2016"
},
{
"addToGlobalConfig" : "Fri Oct 28 14:32:32 2016"
},
{
"addToGlobalConfig" : "Mon Nov  7 16:04:24 2016"
},
{
"addToGlobalConfig" : "Wed Nov  9 15:42:01 2016"
},
{
"addToGlobalConfig" : "Wed Nov  9 16:28:24 2016"
},
{
"addToGlobalConfig" : "Thu Nov 10 15:42:30 2016"
},
{
"addToGlobalConfig" : "Thu Nov 10 15:43:53 2016"
},
{
"addToGlobalConfig" : "Thu Nov 10 16:08:32 2016"
},
{
"addToGlobalConfig" : "Thu Nov 10 16:34:14 2016"
},
{
"addToGlobalConfig" : "Thu Nov 10 16:35:30 2016"
}
]
},
"configurable_entity" : {
"name" : "OTSROOT"
},
"_id" : {
"_oid" : "0e67aebbf87347a29ce0a4f7"
}
}