{
"version" : {
"0" : [
"6462a80cb64148bea4a3172e"
],
"1" : [
"64e8f5220ece45c98b2d6b22"
],
"2" : [
"ee133b21961f43ca83423e26"
],
"3" : [
"22441a92eb4e480594ef410f"
]
},
"configurations.name" : {
"notprovided" : [
"22441a92eb4e480594ef410f",
"6462a80cb64148bea4a3172e",
"64e8f5220ece45c98b2d6b22",
"ee133b21961f43ca83423e26"
],
"myConfig_v0" : [
"22441a92eb4e480594ef410f"
],
"configGroup_v0" : [
"6462a80cb64148bea4a3172e"
],
"configGroup_v1" : [
"6462a80cb64148bea4a3172e"
],
"aaConfig_v0" : [
"22441a92eb4e480594ef410f"
],
"configGroup_v2" : [
"6462a80cb64148bea4a3172e"
],
"configGroup_v3" : [
"6462a80cb64148bea4a3172e"
],
"configGroup_v4" : [
"6462a80cb64148bea4a3172e"
],
"configGroup_v5" : [
"6462a80cb64148bea4a3172e"
],
"configGroup_v6" : [
"6462a80cb64148bea4a3172e"
],
"configGroup_v7" : [
"6462a80cb64148bea4a3172e"
],
"configGroup_v8" : [
"6462a80cb64148bea4a3172e"
],
"configGroup_v9" : [
"6462a80cb64148bea4a3172e"
],
"configGroup_v10" : [
"6462a80cb64148bea4a3172e"
],
"configGroup_v11" : [
"6462a80cb64148bea4a3172e"
],
"configGroup_v12" : [
"6462a80cb64148bea4a3172e"
],
"configGroup_v13" : [
"6462a80cb64148bea4a3172e"
],
"configGroup_v14" : [
"6462a80cb64148bea4a3172e"
],
"configGroup_v15" : [
"6462a80cb64148bea4a3172e"
],
"configGroup_v16" : [
"6462a80cb64148bea4a3172e"
]
},
"configurable_entity.name" : {
"OTSROOT" : [
"22441a92eb4e480594ef410f",
"6462a80cb64148bea4a3172e",
"64e8f5220ece45c98b2d6b22",
"ee133b21961f43ca83423e26"
]
}
}