{
"document" : {
"data" : {
"NAME" : "XDAQ_CONTEXT_CONFIGURATION",
"COMMENT" : "comment_ \" \" ",
"AUTHOR" : "",
"CREATION_TIME" : 1475700180,
"COL_TYPES" : {
"CONTEXT_NAME" : "VARCHAR2",
"APPLICATION_CONFIGURATION" : "VARCHAR2",
"APPLICATION_GROUP" : "VARCHAR2",
"STATUS" : "VARCHAR2",
"ID" : "VARCHAR2",
"ADDRESS" : "VARCHAR2",
"PORT" : "VARCHAR2"
},
"DATA_SET" : [
{
"CONTEXT_NAME" : "otes::super",
"APPLICATION_CONFIGURATION" : "",
"APPLICATION_GROUP" : "",
"STATUS" : "On",
"ID" : "",
"ADDRESS" : "",
"PORT" : ""
}
]
},
"metadata" : {
"comments" : {
"empty" : "empty"
}
},
"search" : [
{
"name" : "find any",
"query" : "not defined"
}
]
},
"source" : {
"encoding" : "base64",
"format" : "json",
"rawdata" : "as"
},
"version" : "0",
"configurations" : [
{
"name" : "notprovided",
"assigned" : "Wed Oct  5 15:43:00 2016"
},
{
"name" : "myContext_v1",
"assigned" : "Thu Oct  6 20:29:48 2016"
}
],
"aliases" : {
"active" : [

],
"history" : [

]
},
"changelog" : "empty",
"bookkeeping" : {
"isdeleted" : false,
"isreadonly" : true,
"created" : "Tue Dec 29 18:19:25 2015",
"updates" : [
{
"addToGlobalConfig" : "Wed Oct  5 15:43:00 2016"
},
{
"setVersion" : "Wed Oct  5 15:43:00 2016"
},
{
"setConfigurableEntity" : "Wed Oct  5 15:43:00 2016"
},
{
"addToGlobalConfig" : "Thu Oct  6 20:29:48 2016"
}
]
},
"configurable_entity" : {
"name" : "OTSROOT"
},
"_id" : {
"_oid" : "48e83689101b48029bb4b19e"
}
}