{
"document" : {
"data" : {
"NAME" : "XDAQ_CONTEXT_CONFIGURATION",
"COMMENT" : "comment_ \" \" ",
"AUTHOR" : "admin",
"CREATION_TIME" : 1478885577,
"COL_TYPES" : {
"CONTEXT_UID" : "VARCHAR2",
"LINK_TO_APPLICATION_CONFIGURATION" : "VARCHAR2",
"LINK_TO_APPLICATION_GROUP_ID" : "VARCHAR2",
"STATUS" : "VARCHAR2",
"ID" : "NUMBER",
"ADDRESS" : "VARCHAR2",
"PORT" : "NUMBER",
"COMMENT_DESCRIPTION" : "VARCHAR2",
"AUTHOR" : "VARCHAR2",
"RECORD_INSERTION_TIME" : "TIMESTAMP WITH TIMEZONE"
},
"DATA_SET" : [
{
"CONTEXT_UID" : "MainContext",
"LINK_TO_APPLICATION_CONFIGURATION" : "XDAQApplicationConfiguration",
"LINK_TO_APPLICATION_GROUP_ID" : "MainContextApps",
"STATUS" : "On",
"ID" : 0,
"ADDRESS" : "http://rulinux03.dhcp.fnal.gov",
"PORT" : 2015,
"COMMENT_DESCRIPTION" : "",
"AUTHOR" : "admin",
"RECORD_INSERTION_TIME" : "Wed Dec 31 18:00:00 1969 CST"
}
]
},
"metadata" : {
"comments" : {
"empty" : "empty"
}
},
"search" : [
{
"name" : "find any",
"query" : "not defined"
}
]
},
"origin" : {
"format" : "json"
},
"version" : "21",
"configurations" : [
{
"name" : "notprovided",
"assigned" : "Fri Nov 11 11:32:57 2016"
},
{
"name" : "exampleContext_v11",
"assigned" : "Fri Nov 11 11:33:19 2016"
}
],
"aliases" : {
"active" : [

],
"history" : [

]
},
"changelog" : "empty",
"bookkeeping" : {
"isdeleted" : false,
"isreadonly" : true,
"created" : "Tue Dec 29 18:19:25 2015",
"updates" : [
{
"addToGlobalConfig" : "Fri Nov 11 11:32:57 2016"
},
{
"setVersion" : "Fri Nov 11 11:32:57 2016"
},
{
"setConfigurableEntity" : "Fri Nov 11 11:32:57 2016"
},
{
"addToGlobalConfig" : "Fri Nov 11 11:33:19 2016"
}
]
},
"configurable_entity" : {
"name" : "OTSROOT"
},
"_id" : {
"_oid" : "bf07082b8e064bdf934359f7"
}
}