{
"version" : {
"0" : [
"48e83689101b48029bb4b19e"
],
"1" : [
"1c3160ab27624fe89049f95a"
],
"2" : [
"6d2f704bddf24725b8002e48"
],
"3" : [
"38ea8a9f54844fc2b57f3123"
],
"4" : [
"203793a2e4214d0a92842dcb"
],
"5" : [
"dd415829459549ed8e073a89"
],
"6" : [
"2776a09461c04057b53026a4"
],
"7" : [
"4bd9db93fc574f85bd802ced"
],
"8" : [
"af24a48625cb45f28369876a"
],
"9" : [
"6fc9ef16910647688a772ff2"
],
"10" : [
"a630cad782ca489598ef9f30"
],
"11" : [
"d3f259f624074cd6b636e428"
],
"12" : [
"0a8b875151fb440f863cdd45"
],
"13" : [
"fb7aa202735c4f79a2832f24"
],
"14" : [
"e8461543c8f64fd1b39ee9a6"
],
"15" : [
"89019e55e19e4f5f8ebcb696"
],
"16" : [
"6791b66decee443892e36735"
],
"17" : [
"9ec3b8a025f1469baabdf3f3"
],
"18" : [
"8744be995333487eb54c83e2"
],
"19" : [
"447986a5cc174c67b91323c5"
],
"20" : [
"293bb3c8fbb046b79566ee74"
],
"21" : [
"bf07082b8e064bdf934359f7"
],
"22" : [
"0b488020eeff4f0ba502bf59"
]
},
"configurations.name" : {
"notprovided" : [
"0a8b875151fb440f863cdd45",
"0b488020eeff4f0ba502bf59",
"1c3160ab27624fe89049f95a",
"203793a2e4214d0a92842dcb",
"2776a09461c04057b53026a4",
"293bb3c8fbb046b79566ee74",
"38ea8a9f54844fc2b57f3123",
"447986a5cc174c67b91323c5",
"48e83689101b48029bb4b19e",
"4bd9db93fc574f85bd802ced",
"6791b66decee443892e36735",
"6d2f704bddf24725b8002e48",
"6fc9ef16910647688a772ff2",
"8744be995333487eb54c83e2",
"89019e55e19e4f5f8ebcb696",
"9ec3b8a025f1469baabdf3f3",
"a630cad782ca489598ef9f30",
"af24a48625cb45f28369876a",
"bf07082b8e064bdf934359f7",
"d3f259f624074cd6b636e428",
"dd415829459549ed8e073a89",
"e8461543c8f64fd1b39ee9a6",
"fb7aa202735c4f79a2832f24"
],
"myContext_v0" : [
"1c3160ab27624fe89049f95a"
],
"myContext_v1" : [
"48e83689101b48029bb4b19e"
],
"myContext_v2" : [
"6d2f704bddf24725b8002e48"
],
"myContext_v3" : [
"6d2f704bddf24725b8002e48"
],
"myContext_v4" : [
"6d2f704bddf24725b8002e48"
],
"myContext_v5" : [
"6d2f704bddf24725b8002e48"
],
"lorenzoContext_v0" : [
"38ea8a9f54844fc2b57f3123"
],
"myContext_v6" : [
"2776a09461c04057b53026a4"
],
"myContext_v7" : [
"2776a09461c04057b53026a4"
],
"myContext_v8" : [
"4bd9db93fc574f85bd802ced"
],
"myContext_v12" : [
"4bd9db93fc574f85bd802ced"
],
"aaContext_v0" : [
"4bd9db93fc574f85bd802ced"
],
"aaContext_v1" : [
"4bd9db93fc574f85bd802ced"
],
"aaContext_v2" : [
"4bd9db93fc574f85bd802ced"
],
"aaContext_v3" : [
"4bd9db93fc574f85bd802ced"
],
"aaContext_v4" : [
"4bd9db93fc574f85bd802ced"
],
"aaContext_v5" : [
"af24a48625cb45f28369876a"
],
"aaContext_v6" : [
"6fc9ef16910647688a772ff2"
],
"exampleContext_v0" : [
"6fc9ef16910647688a772ff2"
],
"exampleContext_v1" : [
"6fc9ef16910647688a772ff2"
],
"exampleContext_v2" : [
"a630cad782ca489598ef9f30"
],
"exampleContext_v3" : [
"d3f259f624074cd6b636e428"
],
"exampleContext_v4" : [
"d3f259f624074cd6b636e428"
],
"exampleContext_v5" : [
"0a8b875151fb440f863cdd45"
],
"exampleContext_v6" : [
"0a8b875151fb440f863cdd45"
],
"exampleContext_v7" : [
"fb7aa202735c4f79a2832f24"
],
"exampleContext_v8" : [
"8744be995333487eb54c83e2"
],
"exampleContext_v9" : [
"447986a5cc174c67b91323c5"
],
"exampleContext_v10" : [
"447986a5cc174c67b91323c5"
],
"exampleContext_v11" : [
"bf07082b8e064bdf934359f7"
],
"exampleContext_v12" : [
"0b488020eeff4f0ba502bf59"
]
},
"configurable_entity.name" : {
"OTSROOT" : [
"0a8b875151fb440f863cdd45",
"0b488020eeff4f0ba502bf59",
"1c3160ab27624fe89049f95a",
"203793a2e4214d0a92842dcb",
"2776a09461c04057b53026a4",
"293bb3c8fbb046b79566ee74",
"38ea8a9f54844fc2b57f3123",
"447986a5cc174c67b91323c5",
"48e83689101b48029bb4b19e",
"4bd9db93fc574f85bd802ced",
"6791b66decee443892e36735",
"6d2f704bddf24725b8002e48",
"6fc9ef16910647688a772ff2",
"8744be995333487eb54c83e2",
"89019e55e19e4f5f8ebcb696",
"9ec3b8a025f1469baabdf3f3",
"a630cad782ca489598ef9f30",
"af24a48625cb45f28369876a",
"bf07082b8e064bdf934359f7",
"d3f259f624074cd6b636e428",
"dd415829459549ed8e073a89",
"e8461543c8f64fd1b39ee9a6",
"fb7aa202735c4f79a2832f24"
]
}
}