{
"document" : {
"data" : {
"NAME" : "FE_INTERFACE_CONFIGURATION",
"COMMENT" : "comment_ \" \" ",
"AUTHOR" : "",
"CREATION_TIME" : 1477604622,
"COL_TYPES" : {
"FE_INTERFACE_GROUP_ID" : "VARCHAR2",
"FE_INTERFACE_UID" : "VARCHAR2",
"LINK_TO_FE_TYPE_CONFIGURATION" : "VARCHAR2",
"FE_TYPE_UID" : "VARCHAR2",
"COMMENT_DESCRIPTION" : "VARCHAR2",
"AUTHOR" : "VARCHAR2",
"RECORD_INSERTION_TIME" : "TIMESTAMP WITH TIMEZONE"
},
"DATA_SET" : [
{
"FE_INTERFACE_GROUP_ID" : "FESupervisor0",
"FE_INTERFACE_UID" : "CBC0",
"LINK_TO_FE_TYPE_CONFIGURATION" : "FECBCInterfaceConfiguration",
"FE_TYPE_UID" : "CBC0",
"COMMENT_DESCRIPTION" : "",
"AUTHOR" : "admin",
"RECORD_INSERTION_TIME" : "Thu Oct 27 16:43:42 2016 CDT"
}
]
},
"metadata" : {
"comments" : {
"empty" : "empty"
}
},
"search" : [
{
"name" : "find any",
"query" : "not defined"
}
]
},
"origin" : {
"format" : "json"
},
"version" : "1",
"configurations" : [
{
"name" : "notprovided",
"assigned" : "Thu Oct 27 16:43:42 2016"
},
{
"name" : "configGroup_v21",
"assigned" : "Thu Oct 27 16:45:18 2016"
},
{
"name" : "configGroup_v23",
"assigned" : "Thu Oct 27 16:47:32 2016"
},
{
"name" : "configGroup_v24",
"assigned" : "Thu Oct 27 16:57:00 2016"
},
{
"name" : "configGroup_v25",
"assigned" : "Fri Oct 28 10:33:30 2016"
},
{
"name" : "configGroup_v26",
"assigned" : "Fri Oct 28 11:13:07 2016"
},
{
"name" : "configGroup_v27",
"assigned" : "Fri Oct 28 11:35:19 2016"
},
{
"name" : "configGroup_v28",
"assigned" : "Fri Oct 28 12:02:07 2016"
},
{
"name" : "configGroup_v29",
"assigned" : "Fri Oct 28 12:09:03 2016"
},
{
"name" : "configGroup_v30",
"assigned" : "Fri Oct 28 12:14:19 2016"
},
{
"name" : "configGroup_v31",
"assigned" : "Fri Oct 28 12:23:13 2016"
},
{
"name" : "configGroup_v32",
"assigned" : "Fri Oct 28 14:16:43 2016"
},
{
"name" : "configGroup_v33",
"assigned" : "Fri Oct 28 14:32:32 2016"
}
],
"aliases" : {
"active" : [

],
"history" : [

]
},
"changelog" : "empty",
"bookkeeping" : {
"isdeleted" : false,
"isreadonly" : true,
"created" : "Tue Dec 29 18:19:25 2015",
"updates" : [
{
"addToGlobalConfig" : "Thu Oct 27 16:43:42 2016"
},
{
"setVersion" : "Thu Oct 27 16:43:42 2016"
},
{
"setConfigurableEntity" : "Thu Oct 27 16:43:42 2016"
},
{
"addToGlobalConfig" : "Thu Oct 27 16:45:18 2016"
},
{
"addToGlobalConfig" : "Thu Oct 27 16:47:32 2016"
},
{
"addToGlobalConfig" : "Thu Oct 27 16:57:00 2016"
},
{
"addToGlobalConfig" : "Fri Oct 28 10:33:30 2016"
},
{
"addToGlobalConfig" : "Fri Oct 28 11:13:07 2016"
},
{
"addToGlobalConfig" : "Fri Oct 28 11:35:19 2016"
},
{
"addToGlobalConfig" : "Fri Oct 28 12:02:07 2016"
},
{
"addToGlobalConfig" : "Fri Oct 28 12:09:03 2016"
},
{
"addToGlobalConfig" : "Fri Oct 28 12:14:19 2016"
},
{
"addToGlobalConfig" : "Fri Oct 28 12:23:13 2016"
},
{
"addToGlobalConfig" : "Fri Oct 28 14:16:43 2016"
},
{
"addToGlobalConfig" : "Fri Oct 28 14:32:32 2016"
}
]
},
"configurable_entity" : {
"name" : "OTSROOT"
},
"_id" : {
"_oid" : "c653f50810f34a6b89752851"
}
}