{
"document" : {
"data" : {
"NAME" : "DATA_BUFFER_CONFIGURATION",
"COMMENT" : "comment_ \" \" ",
"AUTHOR" : "",
"CREATION_TIME" : 1477421763,
"COL_TYPES" : {
"UNIQUE_ID" : "VARCHAR2",
"DATA_BUFFER_ID" : "VARCHAR2",
"PROCESSOR_ID" : "VARCHAR2",
"PROCESSOR_TYPE" : "VARCHAR2",
"PROCESSOR_CLASS" : "VARCHAR2",
"PROCESSOR_STATUS" : "VARCHAR2",
"COMMENT_DESCRIPTION" : "VARCHAR2",
"AUTHOR" : "VARCHAR2",
"RECORD_INSERTION_TIME" : "TIMESTAMP WITH TIMEZONE"
},
"DATA_SET" : [
{
"UNIQUE_ID" : "2",
"DATA_BUFFER_ID" : "VisualBuffer",
"PROCESSOR_ID" : "VisualDataListener0",
"PROCESSOR_TYPE" : "Producer",
"PROCESSOR_CLASS" : "UDPDataListenerProducer",
"PROCESSOR_STATUS" : "on",
"COMMENT_DESCRIPTION" : "DEFAULT",
"AUTHOR" : "admin",
"RECORD_INSERTION_TIME" : "Tue Oct 25 13:56:03 2016 CDT"
},
{
"UNIQUE_ID" : "3",
"DATA_BUFFER_ID" : "VisualBuffer",
"PROCESSOR_ID" : "DQMHistos0",
"PROCESSOR_TYPE" : "Consumer",
"PROCESSOR_CLASS" : "DQMHistosConsumer",
"PROCESSOR_STATUS" : "on",
"COMMENT_DESCRIPTION" : "DEFAULT",
"AUTHOR" : "admin",
"RECORD_INSERTION_TIME" : "Tue Oct 25 13:56:03 2016 CDT"
}
]
},
"metadata" : {
"comments" : {
"empty" : "empty"
}
},
"search" : [
{
"name" : "find any",
"query" : "not defined"
}
]
},
"origin" : {
"format" : "json"
},
"version" : "4",
"configurations" : [
{
"name" : "notprovided",
"assigned" : "Tue Oct 25 13:56:03 2016"
},
{
"name" : "configGroup_v10",
"assigned" : "Tue Oct 25 13:56:11 2016"
},
{
"name" : "configGroup_v11",
"assigned" : "Tue Oct 25 14:29:14 2016"
},
{
"name" : "configGroup_v12",
"assigned" : "Tue Oct 25 14:59:29 2016"
},
{
"name" : "configGroup_v13",
"assigned" : "Tue Oct 25 15:14:31 2016"
}
],
"aliases" : {
"active" : [

],
"history" : [

]
},
"changelog" : "empty",
"bookkeeping" : {
"isdeleted" : false,
"isreadonly" : true,
"created" : "Tue Dec 29 18:19:25 2015",
"updates" : [
{
"addToGlobalConfig" : "Tue Oct 25 13:56:03 2016"
},
{
"setVersion" : "Tue Oct 25 13:56:03 2016"
},
{
"setConfigurableEntity" : "Tue Oct 25 13:56:03 2016"
},
{
"addToGlobalConfig" : "Tue Oct 25 13:56:11 2016"
},
{
"addToGlobalConfig" : "Tue Oct 25 14:29:14 2016"
},
{
"addToGlobalConfig" : "Tue Oct 25 14:59:29 2016"
},
{
"addToGlobalConfig" : "Tue Oct 25 15:14:31 2016"
}
]
},
"configurable_entity" : {
"name" : "OTSROOT"
},
"_id" : {
"_oid" : "662fc1241a2b45c8978c923c"
}
}